{
	"@type": "TaskScheduleImportExportView",
	"name": "External Source ID UI Update",
	"enabled": true,
	"whenToRun": "USE_SCHEDULE_PICKER",
	"listenerEvent": {
		"@type": "ListenerEventImportExportView",
		"name": "External Source ID UI Update"
	},
	"taskScheduleGroups": [{
		"preventRunOnEmpty": false,
		"singleEntry": true,
		"taskScheduleGroupRows": [{
			"monitorGroupReference": {
				"name": "External Source ID UI Update"
			}
		}]
	}],
	"recipientsFailed": "",
	"subjectFailed": "Failed Task Schedule Notification from Labmatrix - {Task Schedule Name}",
	"bodyFailed": "Failure occurred during processing of {Task Schedule Name}.\n\n-- This is an automated email. Please do not reply.\n\n Error: {Error Message}",
	"sendEmptyResultsEmail": false
}