{
	"@type": "UploadConfigImportExportView",
	"displayName": "Study Routing plan UI Update",
	"helpText": "",
	"failOnRowErrors": "NONE",
	"debug": false,
	"restricted": false,
	"roles": [{
		"name": "Administrator"
	}],
	"extractor": {
		"@type": "Default",
		"uploadProcedure": {
			"operator": {
				"@type": "Querier",
				"procedures": [{
					"@type": "Query",
					"queryConfig": {
						"@type": "Query",
						"name": "Study Routing plan via UI - Create and Update",
						"path": "Shared/Data Loading/Pfizer Specific/Pfizer External Source ID UI Update/"
					},
					"procedure": {
						"operator": {
							"@type": "Loader",
							"loader": {
								"type": "FORM",
								"form": {
									"formExternalId": "Study Routing Plan",
									"name": "Study Routing Plan"
								}
							},
							"parameters": [{
								"name": "Study Key",
								"prompt": "Find Study record by",
								"defaultValue": "Study Name",
								"promptUser": false
							}, {
								"name": "Form Key",
								"prompt": "Find existing records by",
								"defaultValue": "Record ID",
								"promptUser": false
							}, {
								"name": "Change Linked Record",
								"prompt": "Allow changes to associated Study",
								"defaultValue": "No",
								"promptUser": false
							}, {
								"name": "FormValidation",
								"prompt": "Run Form validation queries",
								"defaultValue": "true",
								"promptUser": false
							}, {
								"name": "FormCalculation",
								"prompt": "Run Form calculation queries",
								"defaultValue": "true",
								"promptUser": false
							}]
						},
						"destinationName": "Study Routing Plan"
					}
				}],
				"dataSource": {
					"name": "STAGING - Study"
				}
			}
		},
		"columnAllowlist": "",
		"maxAllowedLines": 10
	},
	"useSpecifiedDateTimeFormat": false,
	"respectCsvQuotes": false
}