{
	"@type": "ListenerEventImportExportView",
	"name": "Internal Analysis Approved by Study Director",
	"type": "workflow",
	"workflow": {
		"workflowName": "Internal Analysis Request"
	},
	"workflowTrigger": "STATUS",
	"workflowStatus": "Approved by Study Director"
}