{
	"@type": "MonitorGroup",
	"name": "Delete-Pfizer Biomaterial Barcode ",
	"loadAsUser": {
		"fullName": "Load  Admin",
		"name": "load_admin"
	},
	"cronSchedule": "0 1 0 * * ?",
	"cronTimezone": "Eastern Standard Time",
	"whenToRun": "USE_SCHEDULE_PICKER",
	"networkFilePath": "",
	"errorFileNetworkPath": "",
	"recipients": "",
	"errorSubject": "Dataload Notification from Labmatrix - {Data Loader Name}",
	"errorMessage": "Feedback for {Data Loader Name} data load.\n\nFile: {File Name} \n\n\n-- This is an automated email. Please do not reply.",
	"monitors": [{
		"@type": "QueryMonitor",
		"name": "Delete-Pfizer Biomaterial Barcode ",
		"uploadConfig": {
			"apiKey": "com.biofortis.loader.default.Delete Form Records",
			"displayName": "Delete Form Records"
		},
		"parametersReferences": {
			"Choose a form": {
				"type": "FORM_ONLY",
				"value": {
					"formExternalId": "Pfizer Biomaterial Barcode Search",
					"name": "Pfizer Biomaterial Barcode Search "
				}
			}
		},
		"queryConfig": {
			"@type": "Query",
			"name": "Delete-Pfizer Biomaterial Barcode ",
			"path": "Shared/Data Loading/Pfizer Specific/Pfizer Biomaterial Barcode Search/Conditioners/"
		},
		"customTimezone": ""
	}],
	"sendErrorFile": false,
	"sendSuccessEmail": false,
	"enabled": true,
	"loadCumulativeData": false,
	"dropBlankErrorFile": false,
	"subject_failed": "Failed Dataload Notification from Labmatrix - {Load Schedule Name}",
	"body_failed": "Failure occurred during processing of {Load Schedule Name} data load.\n\n-- This is an automated email. Please do not reply.\n\nError:",
	"cronScheduleDescription": "At 12:01 am",
	"recipientsFailed": ""
}