{
	"@type": "RoleImportExportView",
	"name": "Study Setup Team",
	"description": "Study setup team members require edit on study setup related forms.\nThis Role should be added to all studies requiring study setup with Update for Study Data, Update/Create/Delete for Standalone Forms and Datasources, and Read-only for Subjects and Biomaterials."
}