{
	"@type": "WorkflowImportExportView",
	"name": "Transfer Request",
	"enabled": true,
	"content": "{\n\t\"type\":\"request\",\n\t\"path\":\"transfer\",\n\t\"reports\":\"\",\n\t\"externalFulfillmentFormName\":\"External Fulfillment\",\n\t\"roles\":{\n\t\t\"Study Director\":\"Final Reviewer\",\n\t\t\"Request Creator\":\"Request Creator\"\n\t},\n\t\"queries\":{\n\t\t\"sourceDetailsOnExternalFulfillment\":\"labmatrix.workflow.transfer external fulfillment details\",\n\t\t\"sourceDetailsOnFulfillment\":\"labmatrix.workflow.transfer fulfillment details\",\n\t\t\"fulfillmentsForRequest\":\"labmatrix.workflow.transfer.fulfillments for request\",\n\t\t\"findBiomaterials\":\"pfizer.labmatrix.search.workflow.transfer.find samples\",\n\t\t\"generatingFulfillments\":\"labmatrix.workflow.transfer.generate fulfillments\",\n\t\t\"biomaterialsInRequest\":\"labmatrix.workflow.transfer.biomaterials in transfer request\"\n\t},\n\t\"states\":{\n\t\t\"Submitted\":\"Submitted\",\n\t\t\"Draft\":\"Draft\",\n\t\t\"Fulfilled\":\"Fulfilled\",\n\t\t\"Approved\":\"Approved by Final Reviewer\",\n\t\t\"Rejected\":\"Rejected\",\n\t\t\"Canceled\":\"Canceled\"\n\t},\n\t\"search\":{\n\t\t\"defaultFields\":[\n\t\t\t\"Status\",\n\t\t\t\"Name\",\n\t\t\t\"Created On\",\n\t\t\t\"Created By\"\n\t\t],\n\t\t\"customSearches\":[\n\t\t\t{\n\t\t\t\t\"requiredRoles\":[\n\t\t\t\t\t\"Request Creator\"\n\t\t\t\t],\n\t\t\t\t\"criteria\":{\n\t\t\t\t\t\"variables\":{\n\t\t\t\t\t\t\"Status\":\"Draft\",\n\t\t\t\t\t\t\"Created By\":\"_self_\"\n\t\t\t\t\t},\n\t\t\t\t\t\"operators\":{\n\t\t\t\t\t\t\"Status\":\"in\",\n\t\t\t\t\t\t\"Created By\":\"eq\"\n\t\t\t\t\t}\n\t\t\t\t},\n\t\t\t\t\"text\":\"My Drafts\",\n\t\t\t\t\"id\":\"myDrafts\"\n\t\t\t},\n\t\t\t{\n\t\t\t\t\"requiredRoles\":[\n\t\t\t\t\t\"Request Creator\"\n\t\t\t\t],\n\t\t\t\t\"criteria\":{\n\t\t\t\t\t\"variables\":{\n\t\t\t\t\t\t\"Status\":\"Submitted\",\n\t\t\t\t\t\t\"Created By\":\"_self_\"\n\t\t\t\t\t},\n\t\t\t\t\t\"operators\":{\n\t\t\t\t\t\t\"Status\":\"in\",\n\t\t\t\t\t\t\"Created By\":\"eq\"\n\t\t\t\t\t}\n\t\t\t\t},\n\t\t\t\t\"text\":\"My Submitted Requests\",\n\t\t\t\t\"id\":\"mySubmitted\"\n\t\t\t},\n\t\t\t{\n\t\t\t\t\"requiredRoles\":[\n\t\t\t\t\t\"Request Creator\"\n\t\t\t\t],\n\t\t\t\t\"criteria\":{\n\t\t\t\t\t\"variables\":{\n\t\t\t\t\t\t\"Status\":\"Approved by Study Director\",\n\t\t\t\t\t\t\"Created By\":\"_self_\"\n\t\t\t\t\t},\n\t\t\t\t\t\"operators\":{\n\t\t\t\t\t\t\"Status\":\"in\",\n\t\t\t\t\t\t\"Created By\":\"eq\"\n\t\t\t\t\t}\n\t\t\t\t},\n\t\t\t\t\"text\":\"My Approved Requests\",\n\t\t\t\t\"id\":\"myApproved\"\n\t\t\t},\n\t\t\t{\n\t\t\t\t\"requiredRoles\":[\n\t\t\t\t\t\"Request Creator\"\n\t\t\t\t],\n\t\t\t\t\"criteria\":{\n\t\t\t\t\t\"variables\":{\n\t\t\t\t\t\t\"Status\":\"Draft, Submitted, Approved by Study Director\",\n\t\t\t\t\t\t\"Assignee\":\"_self_\"\n\t\t\t\t\t},\n\t\t\t\t\t\"operators\":{\n\t\t\t\t\t\t\"Status\":\"in\",\n\t\t\t\t\t\t\"Assignee\":\"eq\"\n\t\t\t\t\t}\n\t\t\t\t},\n\t\t\t\t\"text\":\"My Assigned Requests\",\n\t\t\t\t\"id\":\"assigned\",\n\t\t\t\t\"priority\":5\n\t\t\t},\n\t\t\t{\n\t\t\t\t\"requiredRoles\":[\n\t\t\t\t\t\"Study Director\"\n\t\t\t\t],\n\t\t\t\t\"criteria\":{\n\t\t\t\t\t\"variables\":{\n\t\t\t\t\t\t\"Status\":\"Submitted\",\n\t\t\t\t\t\t\"Assignee\":\"_self_\"\n\t\t\t\t\t},\n\t\t\t\t\t\"operators\":{\n\t\t\t\t\t\t\"Status\":\"in\",\n\t\t\t\t\t\t\"Assignee\":\"eq\"\n\t\t\t\t\t}\n\t\t\t\t},\n\t\t\t\t\"text\":\"Assigned requests for review\",\n\t\t\t\t\"id\":\"assigned\",\n\t\t\t\t\"priority\":10\n\t\t\t},\n\t\t\t{\n\t\t\t\t\"requiredRoles\":[\n\t\t\t\t\t\"Study Director\"\n\t\t\t\t],\n\t\t\t\t\"criteria\":{\n\t\t\t\t\t\"variables\":{\n\t\t\t\t\t\t\"Status\":\"Submitted\"\n\t\t\t\t\t},\n\t\t\t\t\t\"operators\":{\n\t\t\t\t\t\t\"Status\":\"in\"\n\t\t\t\t\t}\n\t\t\t\t},\n\t\t\t\t\"text\":\"Requests for review\",\n\t\t\t\t\"id\":\"review\",\n\t\t\t\t\"priority\":10\n\t\t\t}\n\t\t],\n\t\t\"queryApiKey\":\"labmatrix.workflow.transfer.search\"\n\t},\n\t\"destinationFieldName\":\"Destination\",\n\t\"destinationAddressFieldName\":\"Destination Address\",\n\t\"requiredFields\":[\n\n\t],\n\t\"tramline\":{\n\t\t\"color\":\"orange\",\n\t\t\"index\":3,\n\t\t\"showOnHomepageForRoles\":[\n\t\t\t\"Request Creator\",\n\t\t\t\"Study Director\"\n\t\t]\n\t},\n\t\"internalFulfillmentFormName\":\"Fulfillment\"\n}"
}