{
	"@type": "UIConfigurationImportExportView",
	"name": "Pfizer UI Configuration",
	"description": "Pfizer specific UI Configuration. ",
	"formConfigs": [{
		"form": {
			"formExternalId": "Study Visit Plan",
			"name": "Study Visit Plan"
		},
		"formType": 5,
		"display": "FORM_BROWSER"
	}, {
		"formType": 5,
		"display": "TAB",
		"position": 1,
		"reportQuery": {
			"path": "Shared/Reports/Pfizer-specific/UI Elements/",
			"name": "Study Visit Plan",
			"type": 40
		},
		"reportRoles": ["Everyone"]
	}, {
		"form": {
			"formExternalId": "Site Consent Review",
			"name": "Site Consent Review"
		},
		"formType": 5,
		"display": "TAB",
		"position": 3
	}, {
		"form": {
			"formExternalId": "Pfizer Study Detail",
			"name": "Pfizer Study Detail"
		},
		"formType": 5,
		"display": "EMBEDDED",
		"position": 2
	}, {
		"form": {
			"formExternalId": "Study Contact",
			"name": "Study Contact"
		},
		"formType": 5,
		"display": "FORM_BROWSER"
	}, {
		"formType": 5,
		"display": "TAB",
		"position": 5,
		"reportQuery": {
			"path": "Shared/Reports/Pfizer-specific/UI Elements/",
			"name": "Pfizer Routing Plan",
			"type": 40
		},
		"reportRoles": ["Everyone"]
	}, {
		"form": {
			"formExternalId": "Pfizer Routing Plan Detail",
			"name": "Pfizer Routing Plan Detail"
		},
		"formType": 5,
		"display": "FORM_BROWSER"
	}, {
		"form": {
			"formExternalId": "Study Routing Plan",
			"name": "Study Routing Plan"
		},
		"formType": 5,
		"display": "FORM_BROWSER"
	}, {
		"form": {
			"formExternalId": "Study Flexible Consent",
			"name": "Study Flexible Consent"
		},
		"formType": 5,
		"display": "FORM_BROWSER"
	}, {
		"formType": 5,
		"display": "TAB",
		"reportQuery": {
			"path": "Shared/Reports/Pfizer-specific/UI Elements/",
			"name": "Consent Tab",
			"type": 40
		},
		"reportRoles": ["Everyone"]
	}, {
		"form": {
			"formExternalId": "Site Contact",
			"name": "Site Contact"
		},
		"formType": 5,
		"display": "FORM_BROWSER"
	}, {
		"formType": 5,
		"display": "FORM_BROWSER",
		"label": "Subject Consent",
		"reportQuery": {
			"path": "Shared/Reports/Pfizer-specific/Study-level/",
			"name": "Subject Consent Attributes",
			"type": 40
		},
		"reportRoles": ["Everyone"]
	}]
}