{
	"@type": "CustomDataFormImportExportView",
	"name": "Internal Analysis Request",
	"type": "STANDALONE",
	"externalId": "Internal Analysis Request",
	"accessGroupForRecords": "Public",
	"useDefault": true,
	"showAttachments": true,
	"allowReadOnlyRecords": false,
	"attachmentsLabel": "Attachments",
	"createSqbDataSource": true,
	"multipleEntries": true,
	"storeComments": true,
	"allowRecordLock": false,
	"allowEditWithoutEntityPerms": false,
	"columnNum": 2,
	"allowManualEntryExternalId": false,
	"showCreateAnother": true,
	"showSaveButton": true,
	"showInDataEntry": true,
	"showInSearch": true,
	"fields": [{
		"name": "Status",
		"externalId": "Status",
		"acceptedValues": "Draft, Submitted,Approved by Biomarker Lead,Approved by Study Director,Rejected,Fulfilled,Canceled",
		"commentsDisplayType": "AS_TOOLTIP",
		"containsPHI": false,
		"defaultToCurrent": false,
		"displayType": {
			"name": "The \"General\" tab"
		},
		"fieldType": "LIST",
		"required": false,
		"title": false
	}, {
		"name": "History",
		"externalId": "History",
		"commentsDisplayType": "AS_TOOLTIP",
		"containsPHI": false,
		"defaultToCurrent": false,
		"childForm": {
			"formExternalId": "Workflow History",
			"name": "Workflow History"
		},
		"displayType": {
			"name": "The \"General\" tab"
		},
		"fieldType": "CHILD_FORM",
		"required": false,
		"title": false
	}, {
		"name": "Query Log",
		"externalId": "Biomaterial Queries",
		"commentsDisplayType": "AS_TOOLTIP",
		"containsPHI": false,
		"defaultToCurrent": false,
		"childForm": {
			"formExternalId": "Request Query",
			"name": "Query Log"
		},
		"displayType": {
			"name": "The \"General\" tab"
		},
		"fieldType": "CHILD_FORM",
		"required": false,
		"title": false
	}, {
		"name": "BB Project Number",
		"externalId": "BB Project Number",
		"commentsDisplayType": "AS_TOOLTIP",
		"containsPHI": false,
		"defaultToCurrent": false,
		"headerText": "Requestor Contact Information",
		"upperBound": "250",
		"addNewValuesToList": true,
		"displayType": {
			"name": "The \"General\" tab"
		},
		"fieldType": "TEXT",
		"required": false,
		"title": false
	}, {
		"name": "Name",
		"externalId": "Name",
		"commentsDisplayType": "BELOW_FIELD",
		"containsPHI": false,
		"defaultToCurrent": false,
		"upperBound": "250",
		"addNewValuesToList": true,
		"displayType": {
			"name": "The \"General\" tab"
		},
		"fieldType": "TEXT",
		"required": false,
		"title": true
	}, {
		"name": "Department",
		"externalId": "Department",
		"commentsDisplayType": "AS_TOOLTIP",
		"containsPHI": false,
		"defaultToCurrent": false,
		"upperBound": "250",
		"addNewValuesToList": true,
		"displayType": {
			"name": "The \"General\" tab"
		},
		"fieldType": "TEXT",
		"required": false,
		"title": false
	}, {
		"name": "Manager",
		"externalId": "Manager",
		"commentsDisplayType": "AS_TOOLTIP",
		"containsPHI": false,
		"defaultToCurrent": false,
		"upperBound": "250",
		"addNewValuesToList": true,
		"displayType": {
			"name": "The \"General\" tab"
		},
		"fieldType": "TEXT",
		"required": false,
		"title": false
	}, {
		"name": "Email",
		"externalId": "Email",
		"commentsDisplayType": "AS_TOOLTIP",
		"containsPHI": false,
		"defaultToCurrent": false,
		"upperBound": "250",
		"addNewValuesToList": true,
		"displayType": {
			"name": "The \"General\" tab"
		},
		"fieldType": "TEXT",
		"required": false,
		"title": false
	}, {
		"name": "Requestor Name",
		"externalId": "Requestor Name",
		"commentsDisplayType": "AS_TOOLTIP",
		"containsPHI": false,
		"defaultToCurrent": false,
		"upperBound": "250",
		"addNewValuesToList": true,
		"displayType": {
			"name": "The \"General\" tab"
		},
		"fieldType": "TEXT",
		"required": false,
		"title": false
	}, {
		"name": "Project Title",
		"externalId": "Project Title",
		"commentsDisplayType": "AS_TOOLTIP",
		"containsPHI": false,
		"defaultToCurrent": false,
		"headerText": "Research Project Details",
		"upperBound": "250",
		"addNewValuesToList": true,
		"displayType": {
			"name": "The \"General\" tab"
		},
		"fieldType": "TEXT",
		"required": false,
		"title": false
	}, {
		"name": "Background",
		"externalId": "Background",
		"commentsDisplayType": "AS_TOOLTIP",
		"containsPHI": false,
		"defaultToCurrent": false,
		"upperBound": "250",
		"addNewValuesToList": true,
		"displayType": {
			"name": "The \"General\" tab"
		},
		"fieldType": "TEXT",
		"required": false,
		"title": false
	}, {
		"name": "Hypothesis to be tested",
		"externalId": "Hypothesis to be tested",
		"commentsDisplayType": "AS_TOOLTIP",
		"containsPHI": false,
		"defaultToCurrent": false,
		"addNewValuesToList": true,
		"displayType": {
			"name": "The \"General\" tab"
		},
		"fieldType": "LARGE_TEXT",
		"required": false,
		"title": false
	}, {
		"name": "Anticipated impact",
		"externalId": "Anticipated impact",
		"commentsDisplayType": "AS_TOOLTIP",
		"containsPHI": false,
		"defaultToCurrent": false,
		"addNewValuesToList": true,
		"displayType": {
			"name": "The \"General\" tab"
		},
		"fieldType": "LARGE_TEXT",
		"required": false,
		"title": false
	}, {
		"name": "Organizational Line Supported",
		"externalId": "Organizational Line Supported",
		"commentsDisplayType": "AS_TOOLTIP",
		"containsPHI": false,
		"defaultToCurrent": false,
		"upperBound": "250",
		"addNewValuesToList": true,
		"displayType": {
			"name": "The \"General\" tab"
		},
		"fieldType": "TEXT",
		"required": false,
		"title": false
	}, {
		"name": "Drug Program(s) Supported",
		"externalId": "Drug Program(s) Supported",
		"commentsDisplayType": "AS_TOOLTIP",
		"containsPHI": false,
		"defaultToCurrent": false,
		"upperBound": "250",
		"addNewValuesToList": true,
		"displayType": {
			"name": "The \"General\" tab"
		},
		"fieldType": "TEXT",
		"required": false,
		"title": false
	}, {
		"name": "Recipient Information",
		"externalId": "Recipient Information",
		"commentsDisplayType": "AS_TOOLTIP",
		"containsPHI": false,
		"defaultToCurrent": false,
		"childForm": {
			"formExternalId": "Recipient Information",
			"name": "Recipient Information"
		},
		"headerText": "Recipient Information",
		"addNewValuesToList": true,
		"displayType": {
			"name": "The \"General\" tab"
		},
		"fieldType": "CHILD_FORM",
		"required": false,
		"title": false
	}, {
		"name": "Volume required for testing (uL)",
		"externalId": "Volume required for testing (uL)",
		"commentsDisplayType": "AS_TOOLTIP",
		"containsPHI": false,
		"defaultToCurrent": false,
		"headerText": "Request Details",
		"upperBound": "250",
		"addNewValuesToList": true,
		"displayType": {
			"name": "The \"General\" tab"
		},
		"fieldType": "TEXT",
		"required": false,
		"title": false
	}, {
		"name": "Requested DNA/RNA concentration",
		"externalId": "Requested DNA/RNA concentration",
		"commentsDisplayType": "AS_TOOLTIP",
		"containsPHI": false,
		"defaultToCurrent": false,
		"upperBound": "250",
		"addNewValuesToList": true,
		"displayType": {
			"name": "The \"General\" tab"
		},
		"fieldType": "TEXT",
		"required": false,
		"title": false
	}, {
		"name": "Please specify any specimen processing or delivery requirements",
		"externalId": "Please specify any specimen processing or delivery requirements",
		"commentsDisplayType": "AS_TOOLTIP",
		"containsPHI": false,
		"defaultToCurrent": false,
		"upperBound": "250",
		"addNewValuesToList": true,
		"displayType": {
			"name": "The \"General\" tab"
		},
		"fieldType": "TEXT",
		"required": false,
		"title": false
	}, {
		"name": "What clinical/demographic data will you require to carry out your analysis",
		"externalId": "What clinical/demographic data will you require to carry out your analysis",
		"commentsDisplayType": "AS_TOOLTIP",
		"containsPHI": false,
		"defaultToCurrent": false,
		"upperBound": "250",
		"addNewValuesToList": true,
		"displayType": {
			"name": "The \"General\" tab"
		},
		"fieldType": "TEXT",
		"required": false,
		"title": false
	}, {
		"name": "Request Details",
		"externalId": "Request Details",
		"commentsDisplayType": "AS_TOOLTIP",
		"containsPHI": false,
		"defaultToCurrent": false,
		"childForm": {
			"formExternalId": "Request Details",
			"name": "Request Details"
		},
		"addNewValuesToList": true,
		"displayType": {
			"name": "The \"General\" tab"
		},
		"fieldType": "CHILD_FORM",
		"required": false,
		"title": false
	}, {
		"name": "Assignee",
		"externalId": "Assignee ID",
		"commentsDisplayType": "AS_TOOLTIP",
		"containsPHI": false,
		"defaultToCurrent": false,
		"displayType": {
			"name": "The \"General\" tab"
		},
		"fieldType": "INTEGER",
		"required": false,
		"title": false
	}],
	"datasource": {
		"@type": "QiagramDatasourceImportExportView",
		"name": "Internal Analysis Requests",
		"isUserIcon": false,
		"autoUpdateInCatalog": false,
		"paletteGroup": "Workflows",
		"martName": "MART_EX_FORM_Internal Analysis Request",
		"fields": [{
			"name": "Status",
			"type": {
				"name": "String"
			},
			"size": 500,
			"columnName": "Status",
			"modules": "18",
			"isPhi": false,
			"accessGroupIdListColumnName": "access_group_id_list",
			"isCataloged": false,
			"ordinalPosition": 0
		}, {
			"name": "BB Project Number",
			"type": {
				"name": "String"
			},
			"size": 250,
			"columnName": "BB Project Number",
			"modules": "18",
			"isPhi": false,
			"accessGroupIdListColumnName": "access_group_id_list",
			"isCataloged": false,
			"ordinalPosition": 1
		}, {
			"name": "Name",
			"type": {
				"name": "String"
			},
			"size": 250,
			"linkEntityClass": "net.labmatrix.beans.CustomDataRecord:1",
			"columnName": "Name",
			"idColumnName": "id",
			"modules": "18",
			"isPhi": false,
			"accessGroupIdListColumnName": "access_group_id_list",
			"isCataloged": false,
			"ordinalPosition": 2
		}, {
			"name": "Department",
			"type": {
				"name": "String"
			},
			"size": 250,
			"columnName": "Department",
			"modules": "18",
			"isPhi": false,
			"accessGroupIdListColumnName": "access_group_id_list",
			"isCataloged": false,
			"ordinalPosition": 3
		}, {
			"name": "Manager",
			"type": {
				"name": "String"
			},
			"size": 250,
			"columnName": "Manager",
			"modules": "18",
			"isPhi": false,
			"accessGroupIdListColumnName": "access_group_id_list",
			"isCataloged": false,
			"ordinalPosition": 4
		}, {
			"name": "Email",
			"type": {
				"name": "String"
			},
			"size": 250,
			"columnName": "Email",
			"modules": "18",
			"isPhi": false,
			"accessGroupIdListColumnName": "access_group_id_list",
			"isCataloged": false,
			"ordinalPosition": 5
		}, {
			"name": "Requestor Name",
			"type": {
				"name": "String"
			},
			"size": 250,
			"columnName": "Requestor Name",
			"modules": "18",
			"isPhi": false,
			"accessGroupIdListColumnName": "access_group_id_list",
			"isCataloged": false,
			"ordinalPosition": 6
		}, {
			"name": "Project Title",
			"type": {
				"name": "String"
			},
			"size": 250,
			"columnName": "Project Title",
			"modules": "18",
			"isPhi": false,
			"accessGroupIdListColumnName": "access_group_id_list",
			"isCataloged": false,
			"ordinalPosition": 7
		}, {
			"name": "Background",
			"type": {
				"name": "String"
			},
			"size": 250,
			"columnName": "Background",
			"modules": "18",
			"isPhi": false,
			"accessGroupIdListColumnName": "access_group_id_list",
			"isCataloged": false,
			"ordinalPosition": 8
		}, {
			"name": "Hypothesis to be tested",
			"type": {
				"name": "String"
			},
			"size": -1,
			"columnName": "Hypothesis to be tested",
			"modules": "18",
			"isPhi": false,
			"accessGroupIdListColumnName": "access_group_id_list",
			"isCataloged": false,
			"ordinalPosition": 9
		}, {
			"name": "Anticipated impact",
			"type": {
				"name": "String"
			},
			"size": -1,
			"columnName": "Anticipated impact",
			"modules": "18",
			"isPhi": false,
			"accessGroupIdListColumnName": "access_group_id_list",
			"isCataloged": false,
			"ordinalPosition": 10
		}, {
			"name": "Organizational Line Supported",
			"type": {
				"name": "String"
			},
			"size": 250,
			"columnName": "Organizational Line Supported",
			"modules": "18",
			"isPhi": false,
			"accessGroupIdListColumnName": "access_group_id_list",
			"isCataloged": false,
			"ordinalPosition": 11
		}, {
			"name": "Drug Program(s) Supported",
			"type": {
				"name": "String"
			},
			"size": 250,
			"columnName": "Drug Program(s) Supported",
			"modules": "18",
			"isPhi": false,
			"accessGroupIdListColumnName": "access_group_id_list",
			"isCataloged": false,
			"ordinalPosition": 12
		}, {
			"name": "Volume required for testing (uL)",
			"type": {
				"name": "String"
			},
			"size": 250,
			"columnName": "Volume required for testing (uL)",
			"modules": "18",
			"isPhi": false,
			"accessGroupIdListColumnName": "access_group_id_list",
			"isCataloged": false,
			"ordinalPosition": 13
		}, {
			"name": "Requested DNA/RNA concentration",
			"type": {
				"name": "String"
			},
			"size": 250,
			"columnName": "Requested DNA/RNA concentration",
			"modules": "18",
			"isPhi": false,
			"accessGroupIdListColumnName": "access_group_id_list",
			"isCataloged": false,
			"ordinalPosition": 14
		}, {
			"name": "Please specify any specimen processing or delivery requirements",
			"type": {
				"name": "String"
			},
			"size": 250,
			"columnName": "Please specify any specimen processing or delivery requirements",
			"modules": "18",
			"isPhi": false,
			"accessGroupIdListColumnName": "access_group_id_list",
			"isCataloged": false,
			"ordinalPosition": 15
		}, {
			"name": "What clinical/demographic data will you require to carry out your analysis",
			"type": {
				"name": "String"
			},
			"size": 250,
			"columnName": "What clinical/demographic data will you require to carry out your analysis",
			"modules": "18",
			"isPhi": false,
			"accessGroupIdListColumnName": "access_group_id_list",
			"isCataloged": false,
			"ordinalPosition": 16
		}, {
			"name": "Assignee",
			"type": {
				"name": "Integer"
			},
			"precision": 10,
			"columnName": "Assignee",
			"modules": "18",
			"isPhi": false,
			"accessGroupIdListColumnName": "access_group_id_list",
			"isCataloged": false,
			"ordinalPosition": 17
		}, {
			"name": "record id",
			"description": "The system-generated record ID.",
			"descriptionHtml": "The system-generated record ID.",
			"type": {
				"name": "Integer"
			},
			"precision": 10,
			"linkEntityClass": "net.labmatrix.beans.CustomDataRecord:1",
			"columnName": "id",
			"idColumnName": "id",
			"modules": "18",
			"isPhi": false,
			"accessGroupIdListColumnName": "access_group_id_list",
			"isCataloged": false,
			"ordinalPosition": 18
		}, {
			"name": "record is read-only",
			"description": "Whether this record is locked, making the record read-only",
			"descriptionHtml": "Whether this record is locked, making the record read-only",
			"type": {
				"name": "Boolean"
			},
			"columnName": "is_locked",
			"modules": "18",
			"isPhi": false,
			"accessGroupIdListColumnName": "access_group_id_list",
			"isCataloged": false,
			"ordinalPosition": 19
		}, {
			"name": "record external id",
			"description": "The legacy ID of this record in the system where it was originally stored.",
			"descriptionHtml": "The legacy ID of this record in the system where it was originally stored.",
			"type": {
				"name": "String"
			},
			"size": 256,
			"columnName": "__external_id",
			"modules": "18",
			"isPhi": false,
			"accessGroupIdListColumnName": "access_group_id_list",
			"isCataloged": false,
			"ordinalPosition": 20
		}, {
			"name": "record external source",
			"description": "The name of the system where this record was originally stored.",
			"descriptionHtml": "The name of the system where this record was originally stored.",
			"type": {
				"name": "String"
			},
			"size": 256,
			"columnName": "__external_source",
			"modules": "18",
			"isPhi": false,
			"accessGroupIdListColumnName": "access_group_id_list",
			"isCataloged": false,
			"ordinalPosition": 21
		}, {
			"name": "record create date",
			"description": "The date this record was created.",
			"descriptionHtml": "The date this record was created.",
			"type": {
				"name": "Datetime with Timezone"
			},
			"columnName": "record_create_date",
			"modules": "18",
			"isPhi": false,
			"accessGroupIdListColumnName": "access_group_id_list",
			"isCataloged": false,
			"ordinalPosition": 22
		}, {
			"name": "record creator",
			"description": "The user who created this record.",
			"descriptionHtml": "The user who created this record.",
			"type": {
				"name": "String"
			},
			"size": 250,
			"columnName": "record_creator",
			"modules": "18",
			"isPhi": false,
			"accessGroupIdListColumnName": "access_group_id_list",
			"isCataloged": false,
			"ordinalPosition": 23
		}, {
			"name": "record last modified date",
			"description": "The date this record was last modified.",
			"descriptionHtml": "The date this record was last modified.",
			"type": {
				"name": "Datetime with Timezone"
			},
			"columnName": "record_last_modified_date",
			"modules": "18",
			"isPhi": false,
			"accessGroupIdListColumnName": "access_group_id_list",
			"isCataloged": false,
			"ordinalPosition": 24
		}, {
			"name": "record last modifier",
			"description": "The user who last modified this record.",
			"descriptionHtml": "The user who last modified this record.",
			"type": {
				"name": "String"
			},
			"size": 250,
			"columnName": "record_last_modifier",
			"modules": "18",
			"isPhi": false,
			"accessGroupIdListColumnName": "access_group_id_list",
			"isCataloged": false,
			"ordinalPosition": 25
		}, {
			"name": "batch id",
			"description": "The id of the batch in which this record was uploaded.",
			"descriptionHtml": "The id of the batch in which this record was uploaded.",
			"type": {
				"name": "String"
			},
			"size": 250,
			"columnName": "batch_id",
			"modules": "18",
			"isPhi": false,
			"accessGroupIdListColumnName": "access_group_id_list",
			"isCataloged": false,
			"ordinalPosition": 26
		}, {
			"name": "batch step id",
			"description": "The id of the step of the batch in which this record was uploaded.",
			"descriptionHtml": "The id of the step of the batch in which this record was uploaded.",
			"type": {
				"name": "String"
			},
			"size": 250,
			"columnName": "batch_step_id",
			"modules": "18",
			"isPhi": false,
			"accessGroupIdListColumnName": "access_group_id_list",
			"isCataloged": false,
			"ordinalPosition": 27
		}, {
			"name": "form id",
			"description": "The id of the custom data form.",
			"descriptionHtml": "The id of the custom data form.",
			"type": {
				"name": "Integer"
			},
			"columnName": "form_id",
			"modules": "18",
			"isPhi": false,
			"accessGroupIdListColumnName": "access_group_id_list",
			"isCataloged": false,
			"ordinalPosition": 28
		}, {
			"name": "record attachments",
			"description": "The file attachments associated with this record.",
			"descriptionHtml": "The file attachments associated with this record.",
			"type": {
				"name": "Integer"
			},
			"precision": 10,
			"specialFlags": "ATTACHMENTS_COLLECTION",
			"linkEntityClass": "net.labmatrix.beans.CustomDataRecord:1",
			"columnName": "id",
			"modules": "18",
			"isPhi": false,
			"accessGroupIdListColumnName": "access_group_id_list",
			"isCataloged": false,
			"ordinalPosition": 29
		}],
		"isSnapshot": false,
		"isSorted": true,
		"type": "FORM",
		"accessGroupName": "Public"
	},
	"standaloneFormConfigs": [{
		"formType": 1,
		"display": "TAB",
		"reportQuery": {
			"path": "Shared/System/Workflows/Analysis/Pfizer-specific Analysis Request/Reports/",
			"name": "External Analysis Requests Related to Internal Request",
			"type": 40
		}
	}, {
		"formType": 1,
		"display": "TAB",
		"reportQuery": {
			"path": "Shared/System/Workflows/Analysis/Pfizer-specific Analysis Request/Reports/",
			"name": "Batch Report",
			"type": 40
		}
	}],
	"displayForNewRecord": false
}